m	643	116	0	0	0	3	90s	100	1	30111
m	716	164	0	0	0	3	90s	100	1	30111
m	817	162	0	0	0	3	90s	100	1	30111
m	742	390	0	0	0	3	90s	100	1	30111
m	708	338	0	0	0	3	90s	100	1	30111
m	663	434	0	0	0	3	90s	100	1	30111
m	882	434	0	0	0	3	90s	100	1	30111
m	775	336	0	0	0	3	90s	100	1	30111
m	733	294	0	0	0	3	90s	100	1	30111
m	764	64	0	0	0	3	90s	100	1	30111
