section
	empire 1
	frog  0 0 0 0 0 0 0 0 0 0 0 0 0 0 0 0 0 0 0 0
	guard  0 0 0 0 0 0 0 0 0 0
	guard  0 0 0 0 0 0 0 0 0 0
	guard  0 0 0 0 0 0 0 0 0 0
	guard  0 0 0 0 0 0 0 0 0 0
end
section
	empire 2
	frog  0 0 0 0 0 0 0 0 0 0 0 0 0 0 0 0 0 0 0 0
	guard  0 0 0 0 0 0 0 0 0 0
	guard  0 0 0 0 0 0 0 0 0 0
	guard  0 0 0 0 0 0 0 0 0 0
	guard  0 0 0 0 0 0 0 0 0 0
end
section
	empire 3
	frog  0 0 0 0 0 0 0 0 0 0 0 0 0 0 0 0 0 0 0 0
	guard  0 0 0 0 0 0 0 0 0 0
	guard  0 0 0 0 0 0 0 0 0 0
	guard  0 0 0 0 0 0 0 0 0 0
	guard  0 0 0 0 0 0 0 0 0 0
end
